#
# A fatal error has been detected by the Java Runtime Environment:
#
#  EXCEPTION_ACCESS_VIOLATION (0xc0000005) at pc=0x000000000b0a69e0, pid=4384, tid=7648
#
# JRE version: 7.0_09-b05
# Java VM: Java HotSpot(TM) 64-Bit Server VM (23.5-b02 mixed mode windows-amd64 compressed oops)
# Problematic frame:
# C  [ig4icd64.dll+0xf69e0]
#
# Failed to write core dump. Minidumps are not enabled by default on client versions of Windows
#
# If you would like to submit a bug report, please visit:
#   http://bugreport.sun.com/bugreport/crash.jsp
# The crash happened outside the Java Virtual Machine in native code.
# See problematic frame for where to report the bug.
#

---------------  T H R E A D  ---------------

Current thread (0x000000000237d000):  JavaThread "main" [_thread_in_native, id=7648, stack(0x00000000023e0000,0x00000000024e0000)]

siginfo: ExceptionCode=0xc0000005, reading address 0x0000000000000000

Registers:
RAX=0x0000000000000002, RBX=0x0000000000000000, RCX=0x0000000000006000, RDX=0x0000000000000000
RSP=0x00000000024dee10, RBP=0x000000000e0a0640, RSI=0x0000000000000000, RDI=0x000000000cde0088
R8 =0x00000000ffffffff, R9 =0x0000000000001405, R10=0x0000000000000000, R11=0x0000000000001405
R12=0x0000000000001800, R13=0x0000000000000000, R14=0x0000000000001800, R15=0x0000000000000000
RIP=0x000000000b0a69e0, EFLAGS=0x0000000000010206

Top of Stack: (sp=0x00000000024dee10)
0x00000000024dee10:   0000000000000004 0000000000050001
0x00000000024dee20:   0000000004ff8804 000000000b025a8f
0x00000000024dee30:   000000000cde0088 00000000120ba800
0x00000000024dee40:   00000000120ba850 00000000024df018
0x00000000024dee50:   0000000000000000 0000000000001405
0x00000000024dee60:   0000000000001800 00000000120ba850
0x00000000024dee70:   0000000000000004 0000000004ff8804
0x00000000024dee80:   0000000004ff8404 000000000b0a7229
0x00000000024dee90:   000000000cde0088 0000000000000004
0x00000000024deea0:   000000000cde0088 0000000000001405
0x00000000024deeb0:   0000000000000000 0000000000001800
0x00000000024deec0:   0000000000000000 0000000000000000
0x00000000024deed0:   0000000000200000 000000000afe568a
0x00000000024deee0:   000000000237d000 00000000024deff8
0x00000000024deef0:   00000000bcdc2608 0000000000000000
0x00000000024def00:   00000000bcdc2608 00000000024f23a8 

Instructions: (pc=0x000000000b0a69e0)
0x000000000b0a69c0:   14 00 00 74 6d 83 e8 02 74 37 83 f8 02 0f 85 8d
0x000000000b0a69d0:   00 00 00 48 8b d6 45 85 e4 0f 8e 81 00 00 00 90
0x000000000b0a69e0:   41 8b 0c 92 44 3b c1 8b c1 41 0f 42 c0 3b f1 0f
0x000000000b0a69f0:   47 ce 48 ff c2 44 8b c0 49 3b d4 8b f1 7c e1 eb 


Register to memory mapping:

RAX=0x0000000000000002 is an unknown value
RBX=0x0000000000000000 is an unknown value
RCX=0x0000000000006000 is an unknown value
RDX=0x0000000000000000 is an unknown value
RSP=0x00000000024dee10 is pointing into the stack for thread: 0x000000000237d000
RBP=0x000000000e0a0640 is an unknown value
RSI=0x0000000000000000 is an unknown value
RDI=0x000000000cde0088 is an unknown value
R8 =0x00000000ffffffff is an unallocated location in the heap
R9 =0x0000000000001405 is an unknown value
R10=0x0000000000000000 is an unknown value
R11=0x0000000000001405 is an unknown value
R12=0x0000000000001800 is an unknown value
R13=0x0000000000000000 is an unknown value
R14=0x0000000000001800 is an unknown value
R15=0x0000000000000000 is an unknown value


Stack: [0x00000000023e0000,0x00000000024e0000],  sp=0x00000000024dee10,  free space=1019k
Native frames: (J=compiled Java code, j=interpreted, Vv=VM code, C=native code)
C  [ig4icd64.dll+0xf69e0]

Java frames: (J=compiled Java code, j=interpreted, Vv=VM code)
j  org.lwjgl.opengl.GL11.nglDrawElementsBO(IIIJJ)V+0
j  org.lwjgl.opengl.GL11.glDrawElements(IIIJ)V+28
j  WSA.Render.render(LWSA/map/MapController;LWSA/ViewController;)V+261
j  WSA.Render.render(LWSA/ViewController;LWSA/Enviroment;LWSA/map/MapController;Ljava/util/ArrayList;)V+351
j  WSA.Game.gameLoop()V+236
j  WSA.Game.<init>()V+91
j  WSA.WSA.main([Ljava/lang/String;)V+12
v  ~StubRoutines::call_stub

---------------  P R O C E S S  ---------------

Java Threads: ( => current thread )
  0x0000000008e77800 JavaThread "Service Thread" daemon [_thread_blocked, id=10468, stack(0x000000000a8d0000,0x000000000a9d0000)]
  0x0000000008e6d000 JavaThread "C2 CompilerThread1" daemon [_thread_blocked, id=9072, stack(0x000000000a6e0000,0x000000000a7e0000)]
  0x0000000008e68000 JavaThread "C2 CompilerThread0" daemon [_thread_blocked, id=6780, stack(0x000000000a520000,0x000000000a620000)]
  0x0000000008e66800 JavaThread "Attach Listener" daemon [_thread_blocked, id=10228, stack(0x000000000a2f0000,0x000000000a3f0000)]
  0x0000000008e5f800 JavaThread "Signal Dispatcher" daemon [_thread_blocked, id=8300, stack(0x0000000009dc0000,0x0000000009ec0000)]
  0x0000000002306000 JavaThread "Finalizer" daemon [_thread_blocked, id=4280, stack(0x000000000a0e0000,0x000000000a1e0000)]
  0x00000000022ff800 JavaThread "Reference Handler" daemon [_thread_blocked, id=8816, stack(0x0000000009ed0000,0x0000000009fd0000)]
=>0x000000000237d000 JavaThread "main" [_thread_in_native, id=7648, stack(0x00000000023e0000,0x00000000024e0000)]

Other Threads:
  0x0000000008de2800 VMThread [stack: 0x0000000009c30000,0x0000000009d30000] [id=8372]
  0x0000000008e81000 WatcherThread [stack: 0x000000000aab0000,0x000000000abb0000] [id=7764]

VM state:not at safepoint (normal execution)

VM Mutex/Monitor currently owned by a thread: None

Heap
 PSYoungGen      total 18560K, used 6399K [0x00000000eb400000, 0x00000000ed840000, 0x0000000100000000)
  eden space 15936K, 23% used [0x00000000eb400000,0x00000000eb7afdb8,0x00000000ec390000)
  from space 2624K, 100% used [0x00000000ec390000,0x00000000ec620000,0x00000000ec620000)
  to   space 2624K, 0% used [0x00000000ed5b0000,0x00000000ed5b0000,0x00000000ed840000)
 ParOldGen       total 42496K, used 7518K [0x00000000c1c00000, 0x00000000c4580000, 0x00000000eb400000)
  object space 42496K, 17% used [0x00000000c1c00000,0x00000000c2357a90,0x00000000c4580000)
 PSPermGen       total 21248K, used 6854K [0x00000000bca00000, 0x00000000bdec0000, 0x00000000c1c00000)
  object space 21248K, 32% used [0x00000000bca00000,0x00000000bd0b1b88,0x00000000bdec0000)

Card table byte_map: [0x00000000055a0000,0x00000000057c0000] byte_map_base: 0x0000000004fbb000

Polling page: 0x0000000000120000

Code Cache  [0x00000000024e0000, 0x0000000002750000, 0x00000000054e0000)
 total_blobs=499 nmethods=122 adapters=329 free_code_cache=48383Kb largest_free_block=49516224

Compilation events (10 events):
Event: 2.187 Thread 0x0000000008e68000  109             java.lang.StringBuilder::append (8 bytes)
Event: 2.187 Thread 0x0000000008e6d000  110             java.lang.AbstractStringBuilder::append (48 bytes)
Event: 2.190 Thread 0x0000000008e68000 nmethod 109 0x000000000259da90 code [0x000000000259dbe0, 0x000000000259df78]
Event: 2.192 Thread 0x0000000008e6d000 nmethod 110 0x000000000259abd0 code [0x000000000259ad20, 0x000000000259b0b8]
Event: 2.252 Thread 0x0000000008e68000  111             de.matthiasmann.twl.theme.GridImage::draw (220 bytes)
Event: 2.268 Thread 0x0000000008e6d000  112             org.lwjgl.opengl.GL11::glBindTexture (23 bytes)
Event: 2.269 Thread 0x0000000008e68000 nmethod 111 0x00000000025a45d0 code [0x00000000025a47e0, 0x00000000025a55a0]
Event: 2.271 Thread 0x0000000008e6d000 nmethod 112 0x00000000025a1190 code [0x00000000025a1300, 0x00000000025a14d8]
Event: 2.412 Thread 0x0000000008e68000  114             java.nio.Buffer::position (43 bytes)
Event: 2.413 Thread 0x0000000008e68000 nmethod 114 0x000000000259b6d0 code [0x000000000259b800, 0x000000000259b878]

GC Heap History (6 events):
Event: 1.200 GC heap before
{Heap before GC invocations=1 (full 0):
 PSYoungGen      total 18560K, used 15936K [0x00000000eb400000, 0x00000000ec8b0000, 0x0000000100000000)
  eden space 15936K, 100% used [0x00000000eb400000,0x00000000ec390000,0x00000000ec390000)
  from space 2624K, 0% used [0x00000000ec620000,0x00000000ec620000,0x00000000ec8b0000)
  to   space 2624K, 0% used [0x00000000ec390000,0x00000000ec390000,0x00000000ec620000)
 ParOldGen       total 42496K, used 0K [0x00000000c1c00000, 0x00000000c4580000, 0x00000000eb400000)
  object space 42496K, 0% used [0x00000000c1c00000,0x00000000c1c00000,0x00000000c4580000)
 PSPermGen       total 21248K, used 4410K [0x00000000bca00000, 0x00000000bdec0000, 0x00000000c1c00000)
  object space 21248K, 20% used [0x00000000bca00000,0x00000000bce4eb80,0x00000000bdec0000)
Event: 1.208 GC heap after
Heap after GC invocations=1 (full 0):
 PSYoungGen      total 18560K, used 2592K [0x00000000eb400000, 0x00000000ec8b0000, 0x0000000100000000)
  eden space 15936K, 0% used [0x00000000eb400000,0x00000000eb400000,0x00000000ec390000)
  from space 2624K, 98% used [0x00000000ec390000,0x00000000ec618020,0x00000000ec620000)
  to   space 2624K, 0% used [0x00000000ec620000,0x00000000ec620000,0x00000000ec8b0000)
 ParOldGen       total 42496K, used 1565K [0x00000000c1c00000, 0x00000000c4580000, 0x00000000eb400000)
  object space 42496K, 3% used [0x00000000c1c00000,0x00000000c1d87698,0x00000000c4580000)
 PSPermGen       total 21248K, used 4410K [0x00000000bca00000, 0x00000000bdec0000, 0x00000000c1c00000)
  object space 21248K, 20% used [0x00000000bca00000,0x00000000bce4eb80,0x00000000bdec0000)
}
Event: 1.279 GC heap before
{Heap before GC invocations=2 (full 0):
 PSYoungGen      total 18560K, used 18528K [0x00000000eb400000, 0x00000000ec8b0000, 0x0000000100000000)
  eden space 15936K, 100% used [0x00000000eb400000,0x00000000ec390000,0x00000000ec390000)
  from space 2624K, 98% used [0x00000000ec390000,0x00000000ec618020,0x00000000ec620000)
  to   space 2624K, 0% used [0x00000000ec620000,0x00000000ec620000,0x00000000ec8b0000)
 ParOldGen       total 42496K, used 1565K [0x00000000c1c00000, 0x00000000c4580000, 0x00000000eb400000)
  object space 42496K, 3% used [0x00000000c1c00000,0x00000000c1d87698,0x00000000c4580000)
 PSPermGen       total 21248K, used 4983K [0x00000000bca00000, 0x00000000bdec0000, 0x00000000c1c00000)
  object space 21248K, 23% used [0x00000000bca00000,0x00000000bceddf60,0x00000000bdec0000)
Event: 1.292 GC heap after
Heap after GC invocations=2 (full 0):
 PSYoungGen      total 18560K, used 2592K [0x00000000eb400000, 0x00000000ed840000, 0x0000000100000000)
  eden space 15936K, 0% used [0x00000000eb400000,0x00000000eb400000,0x00000000ec390000)
  from space 2624K, 98% used [0x00000000ec620000,0x00000000ec8a8020,0x00000000ec8b0000)
  to   space 2624K, 0% used [0x00000000ec390000,0x00000000ec390000,0x00000000ec620000)
 ParOldGen       total 42496K, used 6737K [0x00000000c1c00000, 0x00000000c4580000, 0x00000000eb400000)
  object space 42496K, 15% used [0x00000000c1c00000,0x00000000c2294610,0x00000000c4580000)
 PSPermGen       total 21248K, used 4983K [0x00000000bca00000, 0x00000000bdec0000, 0x00000000c1c00000)
  object space 21248K, 23% used [0x00000000bca00000,0x00000000bceddf60,0x00000000bdec0000)
}
Event: 1.608 GC heap before
{Heap before GC invocations=3 (full 0):
 PSYoungGen      total 18560K, used 18528K [0x00000000eb400000, 0x00000000ed840000, 0x0000000100000000)
  eden space 15936K, 100% used [0x00000000eb400000,0x00000000ec390000,0x00000000ec390000)
  from space 2624K, 98% used [0x00000000ec620000,0x00000000ec8a8020,0x00000000ec8b0000)
  to   space 2624K, 0% used [0x00000000ec390000,0x00000000ec390000,0x00000000ec620000)
 ParOldGen       total 42496K, used 6737K [0x00000000c1c00000, 0x00000000c4580000, 0x00000000eb400000)
  object space 42496K, 15% used [0x00000000c1c00000,0x00000000c2294610,0x00000000c4580000)
 PSPermGen       total 21248K, used 6774K [0x00000000bca00000, 0x00000000bdec0000, 0x00000000c1c00000)
  object space 21248K, 31% used [0x00000000bca00000,0x00000000bd09d8a0,0x00000000bdec0000)
Event: 1.611 GC heap after
Heap after GC invocations=3 (full 0):
 PSYoungGen      total 18560K, used 2624K [0x00000000eb400000, 0x00000000ed840000, 0x0000000100000000)
  eden space 15936K, 0% used [0x00000000eb400000,0x00000000eb400000,0x00000000ec390000)
  from space 2624K, 100% used [0x00000000ec390000,0x00000000ec620000,0x00000000ec620000)
  to   space 2624K, 0% used [0x00000000ed5b0000,0x00000000ed5b0000,0x00000000ed840000)
 ParOldGen       total 42496K, used 7518K [0x00000000c1c00000, 0x00000000c4580000, 0x00000000eb400000)
  object space 42496K, 17% used [0x00000000c1c00000,0x00000000c2357a90,0x00000000c4580000)
 PSPermGen       total 21248K, used 6774K [0x00000000bca00000, 0x00000000bdec0000, 0x00000000c1c00000)
  object space 21248K, 31% used [0x00000000bca00000,0x00000000bd09d8a0,0x00000000bdec0000)
}

Deoptimization events (3 events):
Event: 1.091 Thread 0x000000000237d000 Uncommon trap -83 fr.pc 0x000000000255e4cc
Event: 1.503 Thread 0x000000000237d000 Uncommon trap -83 fr.pc 0x000000000257c910
Event: 1.521 Thread 0x000000000237d000 Uncommon trap -83 fr.pc 0x0000000002581e78

Internal exceptions (10 events):
Event: 1.554 Thread 0x000000000237d000 Threw 0x00000000eb780fc8 at C:\jdk7u1_64p\jdk7u9\hotspot\src\share\vm\prims\jvm.cpp:1166
Event: 1.555 Thread 0x000000000237d000 Threw 0x00000000eb783bd8 at C:\jdk7u1_64p\jdk7u9\hotspot\src\share\vm\prims\jvm.cpp:1166
Event: 1.625 Thread 0x000000000237d000 Threw 0x00000000eb5adb30 at C:\jdk7u1_64p\jdk7u9\hotspot\src\share\vm\prims\jvm.cpp:1166
Event: 1.628 Thread 0x000000000237d000 Threw 0x00000000eb5b1188 at C:\jdk7u1_64p\jdk7u9\hotspot\src\share\vm\prims\jvm.cpp:1166
Event: 1.630 Thread 0x000000000237d000 Threw 0x00000000eb5bcbb0 at C:\jdk7u1_64p\jdk7u9\hotspot\src\share\vm\prims\jvm.cpp:1166
Event: 1.631 Thread 0x000000000237d000 Threw 0x00000000eb5c0648 at C:\jdk7u1_64p\jdk7u9\hotspot\src\share\vm\prims\jvm.cpp:1166
Event: 1.632 Thread 0x000000000237d000 Threw 0x00000000eb5c46c8 at C:\jdk7u1_64p\jdk7u9\hotspot\src\share\vm\prims\jvm.cpp:1166
Event: 1.639 Thread 0x000000000237d000 Threw 0x00000000eb5c9b68 at C:\jdk7u1_64p\jdk7u9\hotspot\src\share\vm\prims\jvm.cpp:1166
Event: 2.282 Thread 0x000000000237d000 Threw 0x00000000eb7317f0 at C:\jdk7u1_64p\jdk7u9\hotspot\src\share\vm\prims\jvm.cpp:1166
Event: 2.286 Thread 0x000000000237d000 Threw 0x00000000eb73b410 at C:\jdk7u1_64p\jdk7u9\hotspot\src\share\vm\prims\jvm.cpp:1166

Events (10 events):
Event: 1.631 loading class 0x000000000f344080
Event: 1.631 loading class 0x000000000f344080 done
Event: 1.631 loading class 0x000000000aef1370
Event: 1.631 loading class 0x000000000aef1370 done
Event: 1.639 loading class 0x000000000ace6110
Event: 1.639 loading class 0x000000000ace6110 done
Event: 2.282 loading class 0x000000000acfa6f0
Event: 2.282 loading class 0x000000000acfa6f0 done
Event: 2.286 loading class 0x000000000acfa8f0
Event: 2.286 loading class 0x000000000acfa8f0 done


Dynamic libraries:
0x000000013f260000 - 0x000000013f294000 	C:\Program Files\Java\jre7\bin\javaw.exe
0x0000000077120000 - 0x00000000772c9000 	C:\Windows\SYSTEM32\ntdll.dll
0x0000000076ba0000 - 0x0000000076cbf000 	C:\Windows\system32\kernel32.dll
0x000007fefd650000 - 0x000007fefd6bc000 	C:\Windows\system32\KERNELBASE.dll
0x000007fefd950000 - 0x000007fefda2b000 	C:\Windows\system32\ADVAPI32.dll
0x000007fefea00000 - 0x000007fefea9f000 	C:\Windows\system32\msvcrt.dll
0x000007fefed00000 - 0x000007fefed1f000 	C:\Windows\SYSTEM32\sechost.dll
0x000007fefda30000 - 0x000007fefdb5d000 	C:\Windows\system32\RPCRT4.dll
0x0000000076cc0000 - 0x0000000076dba000 	C:\Windows\system32\USER32.dll
0x000007fefec20000 - 0x000007fefec87000 	C:\Windows\system32\GDI32.dll
0x000007fefecf0000 - 0x000007fefecfe000 	C:\Windows\system32\LPK.dll
0x000007fefeaa0000 - 0x000007fefeb69000 	C:\Windows\system32\USP10.dll
0x000007fefc770000 - 0x000007fefc964000 	C:\Windows\WinSxS\amd64_microsoft.windows.common-controls_6595b64144ccf1df_6.0.7601.17514_none_fa396087175ac9ac\COMCTL32.dll
0x000007feff040000 - 0x000007feff0b1000 	C:\Windows\system32\SHLWAPI.dll
0x000007fefeb90000 - 0x000007fefebbe000 	C:\Windows\system32\IMM32.DLL
0x000007fefe8f0000 - 0x000007fefe9f9000 	C:\Windows\system32\MSCTF.dll
0x000007fefd540000 - 0x000007fefd57c000 	C:\Windows\system32\nvinitx.dll
0x000000000f000000 - 0x000000000f006000 	C:\Program Files\NVIDIA Corporation\CoProcManager\_etoured.dll
0x000007fef9f90000 - 0x000007fef9fd4000 	C:\Program Files\NVIDIA Corporation\CoProcManager\nvd3d9wrapx.dll
0x000007fefee60000 - 0x000007feff037000 	C:\Windows\system32\SETUPAPI.dll
0x000007fefd830000 - 0x000007fefd866000 	C:\Windows\system32\CFGMGR32.dll
0x000007feff350000 - 0x000007feff427000 	C:\Windows\system32\OLEAUT32.dll
0x000007feff140000 - 0x000007feff343000 	C:\Windows\system32\ole32.dll
0x000007fefd630000 - 0x000007fefd64a000 	C:\Windows\system32\DEVOBJ.dll
0x000007fef9e90000 - 0x000007fef9ed2000 	C:\Program Files\NVIDIA Corporation\CoProcManager\nvdxgiwrapx.dll
0x0000000063090000 - 0x0000000063161000 	C:\Program Files\Java\jre7\bin\msvcr100.dll
0x000000005b230000 - 0x000000005b94f000 	C:\Program Files\Java\jre7\bin\server\jvm.dll
0x000007fef98b0000 - 0x000007fef98b9000 	C:\Windows\system32\WSOCK32.dll
0x000007fefec90000 - 0x000007fefecdd000 	C:\Windows\system32\WS2_32.dll
0x000007fefece0000 - 0x000007fefece8000 	C:\Windows\system32\NSI.dll
0x000007fefb430000 - 0x000007fefb46b000 	C:\Windows\system32\WINMM.dll
0x00000000772e0000 - 0x00000000772e7000 	C:\Windows\system32\PSAPI.DLL
0x0000000074510000 - 0x000000007451f000 	C:\Program Files\Java\jre7\bin\verify.dll
0x0000000063cd0000 - 0x0000000063cf8000 	C:\Program Files\Java\jre7\bin\java.dll
0x0000000066530000 - 0x0000000066545000 	C:\Program Files\Java\jre7\bin\zip.dll
0x0000000180000000 - 0x000000018004f000 	D:\Users\Roman\Documents\JAVA\Workspace\WSA\lib\native\lwjgl64.dll
0x000007fee9c70000 - 0x000007fee9d8d000 	C:\Windows\system32\OPENGL32.dll
0x000007fef80c0000 - 0x000007fef80ed000 	C:\Windows\system32\GLU32.dll
0x000007fef58c0000 - 0x000007fef59b1000 	C:\Windows\system32\DDRAW.dll
0x000007fefa8b0000 - 0x000007fefa8b8000 	C:\Windows\system32\DCIMAN32.dll
0x000007fefb870000 - 0x000007fefb888000 	C:\Windows\system32\dwmapi.dll
0x000007fefc540000 - 0x000007fefc54c000 	C:\Windows\system32\VERSION.dll
0x000007fefba90000 - 0x000007fefbae6000 	C:\Windows\system32\uxtheme.dll
0x000000000afb0000 - 0x000000000c283000 	C:\Windows\system32\ig4icd64.dll
0x0000000010000000 - 0x0000000010065000 	C:\Program Files\ThinkPad\Bluetooth Software\btmmhook.dll
0x000007fefdb60000 - 0x000007fefe8e8000 	C:\Windows\system32\SHELL32.dll
0x000007fefd470000 - 0x000007fefd47f000 	C:\Windows\system32\CRYPTBASE.dll
0x000007fef9ef0000 - 0x000007fef9f8c000 	C:\Windows\system32\mscms.dll
0x000007fefc2f0000 - 0x000007fefc30e000 	C:\Windows\system32\USERENV.dll
0x000007fefd580000 - 0x000007fefd58f000 	C:\Windows\system32\profapi.dll
0x000007fef7d40000 - 0x000007fef7d82000 	C:\Windows\system32\icm32.dll
0x0000000063f10000 - 0x0000000063f29000 	C:\Program Files\Java\jre7\bin\net.dll
0x000007fefcda0000 - 0x000007fefcdf5000 	C:\Windows\system32\mswsock.dll
0x000007fefcfd0000 - 0x000007fefcfd7000 	C:\Windows\System32\wship6.dll
0x0000000063cb0000 - 0x0000000063cc1000 	C:\Program Files\Java\jre7\bin\nio.dll
0x0000000001d30000 - 0x0000000001d61000 	C:\Program Files\ThinkPad\Bluetooth Software\btkeyind.dll
0x000007feed4c0000 - 0x000007feed5e5000 	C:\Windows\system32\dbghelp.dll

VM Arguments:
jvm_args: -Djava.library.path=D:\Users\Roman\Documents\JAVA\Workspace\WSA\lib\native;D:\Users\Roman\Documents\JAVA\Workspace\WSA\lib\native;D:\Users\Roman\Documents\JAVA\Workspace\WSA\lib\native;D:\Users\Roman\Documents\JAVA\Workspace\WSA\lib\native;D:\Users\Roman\Documents\JAVA\Workspace\WSA\lib\native;D:\Users\Roman\Documents\JAVA\Workspace\WSA\lib\native;D:\Users\Roman\Documents\JAVA\Workspace\WSA\lib\native;D:\Users\Roman\Documents\JAVA\Workspace\WSA\lib\native;D:\Users\Roman\Documents\JAVA\Workspace\WSA\lib\native;D:\Users\Roman\Documents\JAVA\Workspace\WSA\lib\native;D:\Users\Roman\Documents\JAVA\Workspace\WSA\lib\native -Dfile.encoding=UTF-8 
java_command: WSA.WSA
Launcher Type: SUN_STANDARD

Environment Variables:
PATH=C:\Program Files\Common Files\Microsoft Shared\Windows Live;C:\Program Files (x86)\Common Files\Microsoft Shared\Windows Live;C:\Windows\system32;C:\Windows;C:\Windows\System32\Wbem;C:\Windows\System32\WindowsPowerShell\v1.0\;C:\Program Files\ThinkPad\Bluetooth Software\;C:\Program Files\ThinkPad\Bluetooth Software\syswow64;C:\Program Files\Broadcom\WHL\;C:\Program Files\Broadcom\WHL\syswow64;C:\Program Files\Broadcom\WHL\SysWow64\;C:\Program Files\Broadcom\WHL\SysWow64\syswow64;C:\Program Files\Intel\WiFi\bin\;C:\Program Files\Common Files\Intel\WirelessCommon\;C:\Program Files (x86)\Common Files\Lenovo;C:\Program Files (x86)\Common Files\Ulead Systems\MPEG;C:\Program Files\Common Files\Lenovo;C:\Program Files (x86)\Windows Live\Shared;C:\SWTOOLS\ReadyApps;C:\Program Files (x86)\Intel\Services\IPT\;C:\Program Files (x86)\Symantec\VIP Access Client\;D:\Program Files\MATLAB\R2011a\runtime\win64;D:\Program Files\MATLAB\R2011a\bin
USERNAME=Roman
OS=Windows_NT
PROCESSOR_IDENTIFIER=Intel64 Family 6 Model 42 Stepping 7, GenuineIntel



---------------  S Y S T E M  ---------------

OS: Windows 7 , 64 bit Build 7601 Service Pack 1

CPU:total 4 (2 cores per cpu, 2 threads per core) family 6 model 42 stepping 7, cmov, cx8, fxsr, mmx, sse, sse2, sse3, ssse3, sse4.1, sse4.2, popcnt, avx, ht, tsc, tscinvbit

Memory: 4k page, physical 4074736k(1491448k free), swap 8147624k(4682608k free)

vm_info: Java HotSpot(TM) 64-Bit Server VM (23.5-b02) for windows-amd64 JRE (1.7.0_09-b05), built on Sep 24 2012 21:45:04 by "java_re" with unknown MS VC++:1600

time: Tue Dec 11 00:03:48 2012
elapsed time: 2 seconds

