# Blender v2.66 (sub 1) OBJ File: 'tree.blend'
# www.blender.org
o Cylinder
v 0.091935 5.003544 -0.355481
v 0.021702 5.003544 -0.362398
v 0.021702 0.003544 -0.502398
v 0.021702 3.003544 -0.402398
v 0.119247 0.003544 -0.492791
v 0.099738 3.003544 -0.394712
v 0.213044 0.003544 -0.464338
v 0.174775 3.003544 -0.371950
v 0.299487 0.003544 -0.418133
v 0.243930 3.003544 -0.334986
v 0.375255 0.003544 -0.355951
v 0.304545 3.003544 -0.285241
v 0.437437 0.003544 -0.280183
v 0.354290 3.003544 -0.224626
v 0.483642 0.003544 -0.193740
v 0.391254 3.003544 -0.155471
v 0.512095 0.003544 -0.099943
v 0.414016 3.003544 -0.080434
v 0.521702 0.003544 -0.002398
v 0.421702 3.003544 -0.002398
v 0.512095 0.003544 0.095147
v 0.414016 3.003544 0.075638
v 0.483642 0.003544 0.188944
v 0.391254 3.003544 0.150675
v 0.437437 0.003544 0.275387
v 0.354290 3.003544 0.219830
v 0.375255 0.003544 0.351155
v 0.304545 3.003544 0.280445
v 0.299487 0.003544 0.413337
v 0.243930 3.003544 0.330190
v 0.213044 0.003544 0.459542
v 0.174775 3.003544 0.367154
v 0.119247 0.003544 0.487995
v 0.099738 3.003544 0.389916
v 0.021702 0.003544 0.497602
v 0.021702 3.003544 0.397602
v -0.075843 0.003544 0.487995
v -0.056334 3.003544 0.389916
v -0.169640 0.003544 0.459542
v -0.131371 3.003544 0.367154
v -0.256083 0.003544 0.413337
v -0.200526 3.003544 0.330190
v -0.331852 0.003544 0.351155
v -0.261141 3.003544 0.280445
v -0.394033 0.003544 0.275387
v -0.310886 3.003544 0.219830
v -0.440238 0.003544 0.188943
v -0.347850 3.003544 0.150675
v -0.468691 0.003544 0.095147
v -0.370612 3.003544 0.075638
v -0.478298 0.003544 -0.002398
v -0.378298 3.003544 -0.002398
v -0.468690 0.003544 -0.099944
v -0.370612 3.003544 -0.080434
v -0.440237 0.003544 -0.193740
v -0.347850 3.003544 -0.155472
v -0.394032 0.003544 -0.280184
v -0.310885 3.003544 -0.224626
v -0.331851 0.003544 -0.355952
v -0.261140 3.003544 -0.285241
v -0.256082 0.003544 -0.418133
v -0.200526 3.003544 -0.334986
v -0.169639 0.003544 -0.464338
v -0.131371 3.003544 -0.371950
v -0.075842 0.003544 -0.492791
v -0.056333 3.003544 -0.394712
v 0.159468 5.003544 -0.334994
v 0.221707 5.003544 -0.301727
v 0.276261 5.003544 -0.256956
v 0.321031 5.003544 -0.202403
v 0.354299 5.003544 -0.140164
v 0.374785 5.003544 -0.072630
v 0.381702 5.003544 -0.002398
v 0.374785 5.003544 0.067835
v 0.354299 5.003544 0.135368
v 0.321031 5.003544 0.197607
v 0.276261 5.003544 0.252161
v 0.221707 5.003544 0.296931
v 0.159468 5.003544 0.330199
v 0.091935 5.003544 0.350685
v 0.021702 5.003544 0.357602
v -0.048531 5.003544 0.350685
v -0.116064 5.003544 0.330199
v -0.178303 5.003544 0.296931
v -0.232857 5.003544 0.252160
v -0.277627 5.003544 0.197607
v -0.310895 5.003544 0.135368
v -0.331381 5.003544 0.067834
v -0.338298 5.003544 -0.002398
v -0.331381 5.003544 -0.072631
v -0.310894 5.003544 -0.140164
v -0.277627 5.003544 -0.202404
v -0.232856 5.003544 -0.256957
v -0.178303 5.003544 -0.301727
v -0.116063 5.003544 -0.334995
v -0.048530 5.003544 -0.355481
v 0.218353 3.503544 -0.991029
v 0.021702 3.503544 -1.010398
v 0.407447 3.503544 -0.933668
v 0.581717 3.503544 -0.840519
v 0.734466 3.503544 -0.715162
v 0.859824 3.503544 -0.562413
v 0.952973 3.503544 -0.388143
v 1.010334 3.503544 -0.199049
v 1.029702 3.503544 -0.002398
v 1.010334 3.503544 0.194253
v 0.952973 3.503544 0.383347
v 0.859824 3.503544 0.557617
v 0.734466 3.503544 0.710366
v 0.581717 3.503544 0.835724
v 0.407447 3.503544 0.928873
v 0.218353 3.503544 0.986234
v 0.021702 3.503544 1.005602
v -0.174949 3.503544 0.986234
v -0.364043 3.503544 0.928873
v -0.538313 3.503544 0.835723
v -0.691062 3.503544 0.710365
v -0.816420 3.503544 0.557616
v -0.909569 3.503544 0.383346
v -0.966930 3.503544 0.194252
v -0.986298 3.503544 -0.002399
v -0.966929 3.503544 -0.199050
v -0.909568 3.503544 -0.388144
v -0.816419 3.503544 -0.562414
v -0.691061 3.503544 -0.715163
v -0.538312 3.503544 -0.840520
v -0.364041 3.503544 -0.933669
v -0.174947 3.503544 -0.991030
v 0.316679 3.303544 -1.485345
v 0.021702 3.303544 -1.514398
v 0.600320 3.303544 -1.399304
v 0.861724 3.303544 -1.259580
v 1.090848 3.303544 -1.071543
v 1.278884 3.303544 -0.842420
v 1.418608 3.303544 -0.581015
v 1.504650 3.303544 -0.297374
v 1.533702 3.303544 -0.002398
v 1.504650 3.303544 0.292578
v 1.418608 3.303544 0.576219
v 1.278884 3.303544 0.837624
v 1.090848 3.303544 1.066748
v 0.861724 3.303544 1.254784
v 0.600319 3.303544 1.394508
v 0.316678 3.303544 1.480550
v 0.021702 3.303544 1.509602
v -0.273275 3.303544 1.480549
v -0.556916 3.303544 1.394508
v -0.818321 3.303544 1.254784
v -1.047444 3.303544 1.066747
v -1.235481 3.303544 0.837623
v -1.375204 3.303544 0.576218
v -1.461246 3.303544 0.292577
v -1.490298 3.303544 -0.002399
v -1.461245 3.303544 -0.297376
v -1.375203 3.303544 -0.581017
v -1.235479 3.303544 -0.842422
v -1.047442 3.303544 -1.071545
v -0.818319 3.303544 -1.259581
v -0.556913 3.303544 -1.399305
v -0.273272 3.303544 -1.485346
v 0.434669 3.603544 -2.078524
v 0.021702 3.603544 -2.119198
v 0.831766 3.603544 -1.958066
v 1.197733 3.603544 -1.762453
v 1.518506 3.603544 -1.499202
v 1.781757 3.603544 -1.178429
v 1.977370 3.603544 -0.812462
v 2.097828 3.603544 -0.415365
v 2.138502 3.603544 -0.002398
v 2.097829 3.603544 0.410569
v 1.977371 3.603544 0.807666
v 1.781757 3.603544 1.173633
v 1.518506 3.603544 1.494406
v 1.197733 3.603544 1.757657
v 0.831766 3.603544 1.953271
v 0.434669 3.603544 2.073729
v 0.021701 3.603544 2.114402
v -0.391266 3.603544 2.073728
v -0.788363 3.603544 1.953270
v -1.154330 3.603544 1.757656
v -1.475103 3.603544 1.494405
v -1.738354 3.603544 1.173632
v -1.933967 3.603544 0.807665
v -2.054425 3.603544 0.410567
v -2.095098 3.603544 -0.002400
v -2.054424 3.603544 -0.415367
v -1.933965 3.603544 -0.812464
v -1.738351 3.603544 -1.178431
v -1.475100 3.603544 -1.499204
v -1.154327 3.603544 -1.762455
v -0.788359 3.603544 -1.958067
v -0.391262 3.603544 -2.078525
v 0.517263 5.003544 -2.493749
v 0.021702 5.003544 -2.542558
v 0.993779 5.003544 -2.349200
v 1.432940 5.003544 -2.114464
v 1.817867 5.003544 -1.798562
v 2.133768 5.003544 -1.413635
v 2.368504 5.003544 -0.974475
v 2.513054 5.003544 -0.497959
v 2.561862 5.003544 -0.002398
v 2.513054 5.003544 0.493162
v 2.368504 5.003544 0.969679
v 2.133768 5.003544 1.408839
v 1.817867 5.003544 1.793767
v 1.432939 5.003544 2.109668
v 0.993779 5.003544 2.344405
v 0.517262 5.003544 2.488954
v 0.021701 5.003544 2.537762
v -0.473860 5.003544 2.488953
v -0.950376 5.003544 2.344404
v -1.389537 5.003544 2.109667
v -1.774464 5.003544 1.793765
v -2.090365 5.003544 1.408838
v -2.325101 5.003544 0.969677
v -2.469650 5.003544 0.493161
v -2.518458 5.003544 -0.002400
v -2.469649 5.003544 -0.497961
v -2.325099 5.003544 -0.974478
v -2.090362 5.003544 -1.413638
v -1.774460 5.003544 -1.798565
v -1.389533 5.003544 -2.114466
v -0.950372 5.003544 -2.349201
v -0.473855 5.003544 -2.493750
v 0.542041 6.003544 -2.618317
v 0.021702 6.003544 -2.669566
v 1.042383 6.003544 -2.466540
v 1.503502 6.003544 -2.220067
v 1.907675 6.003544 -1.888371
v 2.239372 6.003544 -1.484197
v 2.485844 6.003544 -1.023079
v 2.637622 6.003544 -0.522737
v 2.688870 6.003544 -0.002398
v 2.637622 6.003544 0.517940
v 2.485845 6.003544 1.018283
v 2.239372 6.003544 1.479401
v 1.907675 6.003544 1.883575
v 1.503501 6.003544 2.215272
v 1.042383 6.003544 2.461745
v 0.542040 6.003544 2.613522
v 0.021701 6.003544 2.664770
v -0.498638 6.003544 2.613521
v -0.998980 6.003544 2.461744
v -1.460099 6.003544 2.215271
v -1.864272 6.003544 1.883574
v -2.195968 6.003544 1.479400
v -2.442441 6.003544 1.018281
v -2.594218 6.003544 0.517939
v -2.645466 6.003544 -0.002401
v -2.594217 6.003544 -0.522739
v -2.442439 6.003544 -1.023082
v -2.195966 6.003544 -1.484200
v -1.864269 6.003544 -1.888373
v -1.460094 6.003544 -2.220070
v -0.998975 6.003544 -2.466542
v -0.498633 6.003544 -2.618318
v 0.505617 8.003544 -2.435203
v 0.021702 8.003544 -2.482865
v 0.970936 8.003544 -2.294050
v 1.399776 8.003544 -2.064830
v 1.775657 8.003544 -1.756353
v 2.084135 8.003544 -1.380471
v 2.313354 8.003544 -0.951631
v 2.454508 8.003544 -0.486313
v 2.502169 8.003544 -0.002398
v 2.454508 8.003544 0.481517
v 2.313355 8.003544 0.946835
v 2.084135 8.003544 1.375676
v 1.775657 8.003544 1.751557
v 1.399776 8.003544 2.060035
v 0.970935 8.003544 2.289255
v 0.505617 8.003544 2.430408
v 0.021701 8.003544 2.478069
v -0.462214 8.003544 2.430407
v -0.927532 8.003544 2.289254
v -1.356373 8.003544 2.060034
v -1.732254 8.003544 1.751556
v -2.040732 8.003544 1.375674
v -2.269951 8.003544 0.946834
v -2.411104 8.003544 0.481515
v -2.458765 8.003544 -0.002400
v -2.411103 8.003544 -0.486316
v -2.269949 8.003544 -0.951634
v -2.040729 8.003544 -1.380474
v -1.732251 8.003544 -1.756355
v -1.356369 8.003544 -2.064833
v -0.927528 8.003544 -2.294052
v -0.462209 8.003544 -2.435204
v 0.360443 9.003544 -1.705361
v 0.021702 9.003544 -1.738725
v 0.686166 9.003544 -1.606554
v 0.986354 9.003544 -1.446100
v 1.249471 9.003544 -1.230166
v 1.465405 9.003544 -0.967049
v 1.625859 9.003544 -0.666861
v 1.724666 9.003544 -0.341138
v 1.758029 9.003544 -0.002398
v 1.724666 9.003544 0.336342
v 1.625859 9.003544 0.662065
v 1.465405 9.003544 0.962254
v 1.249471 9.003544 1.225371
v 0.986353 9.003544 1.441305
v 0.686165 9.003544 1.601759
v 0.360442 9.003544 1.700566
v 0.021702 9.003544 1.733929
v -0.317039 9.003544 1.700566
v -0.642762 9.003544 1.601759
v -0.942950 9.003544 1.441304
v -1.206067 9.003544 1.225370
v -1.422001 9.003544 0.962252
v -1.582455 9.003544 0.662064
v -1.681262 9.003544 0.336341
v -1.714625 9.003544 -0.002400
v -1.681262 9.003544 -0.341140
v -1.582454 9.003544 -0.666863
v -1.422000 9.003544 -0.967051
v -1.206065 9.003544 -1.230168
v -0.942948 9.003544 -1.446102
v -0.642759 9.003544 -1.606556
v -0.317036 9.003544 -1.705362
v 0.021702 9.503544 -0.002398
v 0.021702 9.503544 -0.002398
v 0.021702 9.503544 -0.002398
v 0.021702 9.503544 -0.002398
v 0.021702 9.503544 -0.002398
v 0.021702 9.503544 -0.002398
v 0.021702 9.503544 -0.002398
v 0.021702 9.503544 -0.002398
v 0.021702 9.503544 -0.002398
v 0.021702 9.503544 -0.002398
v 0.021702 9.503544 -0.002398
v 0.021702 9.503544 -0.002398
v 0.021702 9.503544 -0.002398
v 0.021702 9.503544 -0.002398
v 0.021702 9.503544 -0.002398
v 0.021702 9.503544 -0.002398
v 0.021702 9.503544 -0.002398
v 0.021702 9.503544 -0.002398
v 0.021702 9.503544 -0.002398
v 0.021702 9.503544 -0.002398
v 0.021702 9.503544 -0.002398
v 0.021702 9.503544 -0.002398
v 0.021702 9.503544 -0.002398
v 0.021702 9.503544 -0.002398
v 0.021702 9.503544 -0.002398
v 0.021702 9.503544 -0.002398
v 0.021702 9.503544 -0.002398
v 0.021702 9.503544 -0.002398
v 0.021702 9.503544 -0.002398
v 0.021702 9.503544 -0.002398
v 0.021702 9.503544 -0.002398
v 0.021702 9.503544 -0.002398
vn 0.980407 0.026643 -0.195013
vn 0.923521 0.026643 -0.382519
vn 0.140751 -0.988311 -0.058290
vn 0.000000 -0.673513 -0.739158
vn 0.000000 0.026643 -0.999634
vn 0.195013 0.026643 -0.980407
vn 0.831172 0.026643 -0.555345
vn 0.126682 -0.988311 -0.084628
vn 0.144200 -0.673513 -0.724937
vn 0.382519 0.026643 -0.923521
vn 0.980407 0.026643 0.195013
vn 0.999634 0.026643 0.000000
vn 0.152348 -0.988311 0.000000
vn 0.282846 -0.673513 -0.682882
vn 0.555345 0.026643 -0.831172
vn 0.923521 0.026643 0.382519
vn 0.149419 -0.988311 0.029725
vn 0.410657 -0.673513 -0.614582
vn 0.706839 0.026643 -0.706839
vn 0.831172 0.026643 0.555345
vn 0.140751 -0.988311 0.058290
vn 0.522660 -0.673513 -0.522660
vn -0.195013 0.026643 -0.980407
vn 0.000000 -0.988311 -0.152348
vn 0.614582 -0.673513 -0.410657
vn 0.706839 0.026643 0.706839
vn 0.126682 -0.988311 0.084628
vn 0.682882 -0.673513 -0.282846
vn 0.555345 0.026643 0.831172
vn 0.107730 -0.988311 0.107730
vn 0.724937 -0.673513 -0.144200
vn 0.382519 0.026643 0.923521
vn 0.084628 -0.988311 0.126682
vn 0.739158 -0.673513 0.000000
vn 0.724937 -0.673513 0.144200
vn 0.195013 0.026643 0.980407
vn 0.058290 -0.988311 0.140751
vn 0.682882 -0.673513 0.282846
vn 0.000000 0.026643 0.999634
vn 0.029725 -0.988311 0.149419
vn 0.614582 -0.673513 0.410657
vn -0.195013 0.026643 0.980407
vn -0.029725 -0.988311 0.149419
vn 0.522660 -0.673513 0.522660
vn -0.382519 0.026643 0.923521
vn -0.058290 -0.988311 0.140751
vn 0.410657 -0.673513 0.614582
vn -0.555345 0.026643 0.831172
vn -0.084628 -0.988311 0.126682
vn 0.282846 -0.673513 0.682882
vn -0.706839 0.026643 0.706839
vn -0.107730 -0.988311 0.107730
vn 0.144200 -0.673513 0.724937
vn -0.831172 0.026643 0.555345
vn -0.126682 -0.988311 0.084628
vn 0.000000 -0.673513 0.739158
vn -0.144200 -0.673513 0.724937
vn -0.923551 0.026643 0.382519
vn -0.140751 -0.988311 0.058290
vn -0.282846 -0.673513 0.682882
vn -0.980407 0.026643 0.195013
vn -0.149419 -0.988311 0.029725
vn -0.410657 -0.673513 0.614582
vn -0.999634 0.026643 0.000000
vn -0.152348 -0.988311 0.000000
vn -0.522660 -0.673513 0.522660
vn -0.980407 0.026643 -0.195013
vn -0.149419 -0.988311 -0.029725
vn -0.614582 -0.673513 0.410657
vn -0.923521 0.026643 -0.382519
vn -0.140751 -0.988311 -0.058290
vn -0.682882 -0.673513 0.282846
vn -0.831172 0.026643 -0.555345
vn -0.126682 -0.988311 -0.084628
vn -0.724937 -0.673513 0.144200
vn -0.706839 0.026643 -0.706839
vn -0.107730 -0.988311 -0.107730
vn -0.739158 -0.673513 0.000000
vn -0.555345 0.026643 -0.831172
vn -0.084628 -0.988311 -0.126682
vn -0.724937 -0.673513 -0.144200
vn -0.382519 0.026643 -0.923551
vn -0.058290 -0.988311 -0.140751
vn -0.682882 -0.673513 -0.282846
vn -0.029725 -0.988311 -0.149419
vn -0.614582 -0.673513 -0.410657
vn 0.029725 -0.988311 -0.149419
vn -0.522660 -0.673513 -0.522660
vn 0.058290 -0.988311 -0.140751
vn -0.410657 -0.673513 -0.614582
vn 0.107730 -0.988311 -0.107730
vn -0.133366 -0.729759 0.670553
vn -0.282846 -0.673513 -0.682882
vn 0.084628 -0.988311 -0.126682
vn -0.144200 -0.673513 -0.724937
vn 0.149419 -0.988311 -0.029725
vn -0.631642 -0.729759 0.261635
vn -0.568468 -0.729759 0.379833
vn 0.061586 -0.997772 -0.025483
vn -0.261635 -0.729759 0.631642
vn -0.379833 -0.729759 0.568468
vn -0.483444 -0.729759 0.483444
vn -0.670553 -0.729759 0.133366
vn -0.683676 -0.729759 0.000000
vn -0.670553 -0.729759 -0.133366
vn -0.631642 -0.729759 -0.261635
vn -0.568468 -0.729759 -0.379833
vn -0.483444 -0.729759 -0.483444
vn -0.379833 -0.729759 -0.568468
vn -0.261635 -0.729759 -0.631642
vn -0.133366 -0.729759 -0.670553
vn 0.000000 -0.988311 0.152348
vn 0.000000 -0.729759 -0.683676
vn 0.133366 -0.729759 0.670553
vn 0.133366 -0.729759 -0.670553
vn 0.261635 -0.729759 -0.631642
vn 0.379833 -0.729759 -0.568468
vn 0.483444 -0.729759 -0.483444
vn 0.568468 -0.729759 -0.379833
vn 0.631642 -0.729759 -0.261635
vn 0.670553 -0.729759 -0.133366
vn 0.683676 -0.729759 0.000000
vn 0.670553 -0.729759 0.133366
vn 0.631642 -0.729759 0.261635
vn 0.568468 -0.729759 0.379833
vn 0.483444 -0.729759 0.483444
vn 0.379833 -0.729759 0.568468
vn 0.261635 -0.729759 0.631642
vn 0.037019 -0.997772 -0.055422
vn 0.025483 -0.997772 -0.061586
vn 0.295999 -0.633747 -0.714621
vn 0.055422 -0.997772 0.037019
vn 0.013001 -0.997772 0.065371
vn -0.047121 -0.997772 0.047121
vn -0.065371 -0.997772 -0.013001
vn -0.025483 -0.997772 -0.061586
vn 0.055422 -0.997772 -0.037019
vn 0.061586 -0.997772 0.025483
vn -0.037019 -0.997772 0.055422
vn -0.066652 -0.997772 0.000000
vn -0.037019 -0.997772 -0.055422
vn 0.047121 -0.997772 -0.047121
vn 0.065371 -0.997772 0.013001
vn 0.025483 -0.997772 0.061586
vn -0.025483 -0.997772 0.061586
vn -0.065371 -0.997772 0.013001
vn -0.047121 -0.997772 -0.047121
vn 0.066652 -0.997772 0.000000
vn 0.037019 -0.997772 0.055422
vn -0.013001 -0.997772 0.065371
vn -0.061586 -0.997772 0.025483
vn -0.055422 -0.997772 -0.037019
vn 0.065371 -0.997772 -0.013001
vn 0.047121 -0.997772 0.047121
vn 0.000000 -0.997772 0.066652
vn -0.055422 -0.997772 0.037019
vn -0.061586 -0.997772 -0.025483
vn 0.000000 -0.729759 0.683676
vn -0.013001 -0.997772 -0.065371
vn 0.000000 -0.997772 -0.066652
vn -0.150884 -0.633747 -0.758629
vn -0.295999 -0.633747 -0.714621
vn -0.190832 -0.207373 -0.959441
vn 0.758629 -0.633747 -0.150884
vn 0.546953 -0.633747 0.546953
vn -0.295999 -0.633747 0.714621
vn -0.758629 -0.633747 0.150884
vn -0.546953 -0.633747 -0.546953
vn 0.013001 -0.997772 -0.065371
vn 0.150884 -0.633747 -0.758629
vn 0.714621 -0.633747 -0.295999
vn 0.643147 -0.633747 0.429731
vn -0.150884 -0.633747 0.758629
vn -0.714621 -0.633747 0.295999
vn -0.643147 -0.633747 -0.429731
vn 0.000000 -0.633747 -0.773492
vn 0.643147 -0.633747 -0.429731
vn 0.714621 -0.633747 0.295999
vn 0.000000 -0.633747 0.773492
vn -0.643147 -0.633747 0.429731
vn -0.714621 -0.633747 -0.295999
vn 0.546953 -0.633747 -0.546953
vn 0.758629 -0.633747 0.150884
vn 0.295999 -0.633747 0.714621
vn -0.546953 -0.633747 0.546953
vn -0.758629 -0.633747 -0.150884
vn 0.429731 -0.633747 -0.643147
vn 0.773492 -0.633747 0.000000
vn 0.429731 -0.633747 0.643147
vn -0.773492 -0.633747 0.000000
vn -0.429731 -0.633747 -0.643147
vn -0.691702 -0.207373 -0.691702
vn -0.813379 -0.207373 -0.543474
vn -0.706992 -0.016511 -0.706992
vn 0.691702 -0.207373 -0.691702
vn 0.959441 -0.207373 0.190832
vn 0.150884 -0.633747 0.758629
vn 0.374340 -0.207373 0.903775
vn -0.429731 -0.633747 0.643147
vn -0.691702 -0.207373 0.691702
vn -0.959441 -0.207373 -0.190832
vn -0.374340 -0.207373 -0.903775
vn 0.543474 -0.207373 -0.813379
vn 0.978240 -0.207373 0.000000
vn 0.543474 -0.207373 0.813379
vn -0.543474 -0.207373 0.813379
vn -0.978240 -0.207373 0.000000
vn -0.543474 -0.207373 -0.813379
vn 0.374340 -0.207373 -0.903775
vn 0.959441 -0.207373 -0.190832
vn 0.691702 -0.207373 0.691702
vn -0.374340 -0.207373 0.903775
vn -0.959441 -0.207373 0.190832
vn 0.190832 -0.207373 -0.959441
vn 0.903775 -0.207373 -0.374340
vn 0.813379 -0.207373 0.543474
vn -0.190832 -0.207373 0.959441
vn -0.903775 -0.207373 0.374340
vn 0.000000 -0.207373 -0.978240
vn 0.813379 -0.207373 -0.543474
vn 0.903775 -0.207373 0.374340
vn 0.190832 -0.207373 0.959441
vn -0.813379 -0.207373 0.543474
vn -0.903775 -0.207373 -0.374340
vn -0.980651 -0.016511 -0.195044
vn -0.999847 -0.016511 0.000000
vn -0.917722 0.352733 -0.182531
vn 0.195044 -0.016511 -0.980651
vn 0.923734 -0.016511 -0.382611
vn 0.831355 -0.016511 0.555467
vn 0.000000 -0.207373 0.978240
vn -0.195044 -0.016511 0.980651
vn -0.923734 -0.016511 0.382611
vn -0.831355 -0.016511 -0.555467
vn 0.000000 -0.016511 -0.999847
vn 0.831355 -0.016511 -0.555467
vn 0.923734 -0.016511 0.382611
vn 0.195044 -0.016511 0.980651
vn -0.831355 -0.016511 0.555467
vn -0.923734 -0.016511 -0.382611
vn -0.195044 -0.016511 -0.980651
vn 0.706992 -0.016511 -0.706992
vn 0.980651 -0.016511 0.195044
vn 0.382611 -0.016511 0.923734
vn -0.706992 -0.016511 0.706992
vn -0.382611 -0.016511 -0.923734
vn 0.555467 -0.016511 -0.831355
vn 0.999847 -0.016511 0.000000
vn 0.555467 -0.016511 0.831355
vn -0.555467 -0.016511 0.831355
vn -0.555467 -0.016511 -0.831355
vn 0.382611 -0.016511 -0.923734
vn 0.980651 -0.016511 -0.195044
vn 0.706992 -0.016511 0.706992
vn -0.382611 -0.016511 0.923734
vn -0.980651 -0.016511 0.195044
vn -0.864467 0.352733 0.358074
vn -0.778008 0.352733 0.519852
vn -0.538194 0.812769 0.222907
vn -0.358074 0.352733 -0.864467
vn 0.519852 0.352733 -0.778008
vn 0.935697 0.352733 0.000000
vn 0.519852 0.352733 0.778008
vn -0.519852 0.352733 0.778008
vn -0.935697 0.352733 0.000000
vn -0.519852 0.352733 -0.778008
vn 0.358074 0.352733 -0.864467
vn 0.917722 0.352733 -0.182531
vn 0.661641 0.352733 0.661641
vn -0.358074 0.352733 0.864467
vn -0.917722 0.352733 0.182531
vn -0.661641 0.352733 -0.661641
vn 0.182531 0.352733 -0.917722
vn 0.864467 0.352733 -0.358074
vn 0.778008 0.352733 0.519852
vn 0.000000 -0.016511 0.999847
vn -0.182531 0.352733 0.917722
vn -0.778008 0.352733 -0.519852
vn 0.000000 0.352733 -0.935697
vn 0.778008 0.352733 -0.519852
vn 0.864467 0.352733 0.358074
vn 0.182531 0.352733 0.917722
vn -0.864467 0.352733 -0.358074
vn -0.182531 0.352733 -0.917722
vn 0.661641 0.352733 -0.661641
vn 0.917722 0.352733 0.182531
vn 0.358074 0.352733 0.864467
vn -0.661641 0.352733 0.661641
vn -0.323618 0.812769 0.484359
vn -0.222907 0.812769 0.538194
vn -0.131016 0.960570 0.245125
vn -0.484359 0.812769 -0.323618
vn 0.000000 0.812769 -0.582537
vn 0.484359 0.812769 -0.323618
vn 0.538194 0.812769 0.222907
vn 0.000000 0.352733 0.935697
vn 0.113620 0.812769 0.571337
vn -0.484359 0.812769 0.323618
vn -0.538194 0.812769 -0.222907
vn -0.113620 0.812769 -0.571337
vn 0.411908 0.812769 -0.411908
vn 0.571337 0.812769 0.113620
vn 0.222907 0.812769 0.538194
vn -0.411908 0.812769 0.411908
vn -0.571337 0.812769 -0.113620
vn -0.222907 0.812769 -0.538194
vn 0.323618 0.812769 -0.484359
vn 0.582537 0.812769 0.000000
vn 0.323618 0.812769 0.484359
vn -0.582537 0.812769 0.000000
vn -0.323618 0.812769 -0.484359
vn 0.222907 0.812769 -0.538194
vn 0.571337 0.812769 -0.113620
vn 0.411908 0.812769 0.411908
vn -0.571337 0.812769 0.113620
vn -0.411908 0.812769 -0.411908
vn 0.113620 0.812769 -0.571337
vn 0.538194 0.812769 -0.222907
vn 0.484359 0.812769 0.323618
vn -0.113620 0.812769 0.571337
vn 0.131016 0.960570 -0.245125
vn 0.080660 0.960570 -0.265969
vn -0.265969 0.960570 0.080660
vn -0.276589 0.960570 0.027223
vn -0.176305 0.960570 -0.214850
vn 0.276589 0.960570 -0.027223
vn 0.176305 0.960570 0.214850
vn -0.080660 0.960570 0.265969
vn -0.214850 0.960570 -0.176305
vn 0.265969 0.960570 -0.080660
vn 0.214850 0.960570 0.176305
vn 0.000000 0.812769 0.582537
vn -0.027223 0.960570 0.276589
vn -0.245125 0.960570 0.131016
vn -0.245125 0.960570 -0.131016
vn -0.027223 0.960570 -0.276589
vn 0.027223 0.960570 -0.276589
vn 0.245125 0.960570 -0.131016
vn 0.245125 0.960570 0.131016
vn 0.027223 0.960570 0.276589
vn -0.214850 0.960570 0.176305
vn -0.265969 0.960570 -0.080660
vn -0.080660 0.960570 -0.265969
vn 0.214850 0.960570 -0.176305
vn 0.265969 0.960570 0.080660
vn 0.080660 0.960570 0.265969
vn -0.176305 0.960570 0.214850
vn -0.276589 0.960570 -0.027223
vn -0.131016 0.960570 -0.245125
vn 0.176305 0.960570 -0.214850
vn 0.276589 0.960570 0.027223
vn 0.131016 0.960570 0.245125
s 1
f 18//1 16//2 71//3
f 3//4 4//5 6//6
f 16//2 14//7 70//8
f 5//9 6//6 8//10
f 22//11 20//12 73//13
f 7//14 8//10 10//15
f 24//16 22//11 74//17
f 9//18 10//15 12//19
f 26//20 24//16 75//21
f 11//22 12//19 14//7
f 4//5 66//23 2//24
f 13//25 14//7 16//2
f 28//26 26//20 76//27
f 15//28 16//2 18//1
f 30//29 28//26 77//30
f 17//31 18//1 20//12
f 32//32 30//29 78//33
f 19//34 20//12 22//11
f 6//6 4//5 2//24
f 21//35 22//11 24//16
f 34//36 32//32 79//37
f 23//38 24//16 26//20
f 36//39 34//36 80//40
f 25//41 26//20 28//26
f 38//42 36//39 82//43
f 27//44 28//26 30//29
f 40//45 38//42 83//46
f 29//47 30//29 32//32
f 42//48 40//45 84//49
f 31//50 32//32 34//36
f 44//51 42//48 85//52
f 33//53 34//36 36//39
f 46//54 44//51 86//55
f 35//56 36//39 37//57
f 48//58 46//54 87//59
f 37//57 38//42 39//60
f 50//61 48//58 88//62
f 39//60 40//45 41//63
f 52//64 50//61 89//65
f 41//63 42//48 43//66
f 54//67 52//64 90//68
f 43//66 44//51 45//69
f 56//70 54//67 91//71
f 45//69 46//54 47//72
f 58//73 56//70 92//74
f 47//72 48//58 49//75
f 60//76 58//73 93//77
f 49//75 50//61 51//78
f 62//79 60//76 94//80
f 51//78 52//64 53//81
f 64//82 62//79 95//83
f 53//81 54//67 55//84
f 66//23 64//82 96//85
f 55//84 56//70 57//86
f 8//10 6//6 1//87
f 57//86 58//73 59//88
f 10//15 8//10 67//89
f 59//88 60//76 61//90
f 14//7 12//19 69//91
f 1//87 2//24 97//92
f 61//90 62//79 63//93
f 12//19 10//15 68//94
f 65//95 66//23 3//4
f 63//93 64//82 65//95
f 20//12 18//1 72//96
f 3//4 5//9 65//95
f 103//97 102//98 135//99
f 67//89 1//87 99//100
f 68//94 67//89 100//101
f 69//91 68//94 101//102
f 70//8 69//91 102//98
f 71//3 70//8 103//97
f 72//96 71//3 104//103
f 73//13 72//96 105//104
f 74//17 73//13 106//105
f 75//21 74//17 107//106
f 76//27 75//21 108//107
f 77//30 76//27 109//108
f 78//33 77//30 110//109
f 79//37 78//33 111//110
f 80//40 79//37 112//111
f 81//112 80//40 113//113
f 82//43 81//112 113//113
f 2//24 96//85 128//114
f 83//46 82//43 114//115
f 84//49 83//46 115//116
f 85//52 84//49 116//117
f 86//55 85//52 117//118
f 87//59 86//55 118//119
f 88//62 87//59 119//120
f 89//65 88//62 120//121
f 90//68 89//65 121//122
f 91//71 90//68 122//123
f 92//74 91//71 123//124
f 93//77 92//74 124//125
f 94//80 93//77 125//126
f 95//83 94//80 126//127
f 96//85 95//83 127//128
f 132//129 131//130 163//131
f 108//107 107//106 140//132
f 113//113 112//111 144//133
f 118//119 117//118 149//134
f 123//124 122//123 154//135
f 128//114 127//128 159//136
f 102//98 101//102 134//137
f 107//106 106//105 139//138
f 112//111 111//110 144//133
f 117//118 116//117 148//139
f 122//123 121//122 153//140
f 127//128 126//127 158//141
f 101//102 100//101 133//142
f 106//105 105//104 138//143
f 111//110 110//109 143//144
f 116//117 115//116 147//145
f 121//122 120//121 152//146
f 126//127 125//126 157//147
f 100//101 99//100 132//129
f 105//104 104//103 137//148
f 110//109 109//108 142//149
f 115//116 114//115 146//150
f 120//121 119//120 151//151
f 125//126 124//125 156//152
f 99//100 97//92 131//130
f 104//103 103//97 136//153
f 109//108 108//107 141//154
f 114//115 113//113 145//155
f 119//120 118//119 150//156
f 124//125 123//124 155//157
f 98//158 128//114 160//159
f 97//92 98//158 130//160
f 192//161 191//162 224//163
f 137//148 136//153 168//164
f 142//149 141//154 173//165
f 147//145 146//150 179//166
f 152//146 151//151 184//167
f 157//147 156//152 189//168
f 131//130 129//169 161//170
f 136//153 135//99 167//171
f 141//154 140//132 172//172
f 146//150 145//155 178//173
f 151//151 150//156 183//174
f 156//152 155//157 188//175
f 130//160 160//159 162//176
f 129//169 130//160 161//170
f 135//99 134//137 166//177
f 140//132 139//138 171//178
f 145//155 144//133 177//179
f 150//156 149//134 182//180
f 155//157 154//135 187//181
f 160//159 159//136 192//161
f 134//137 133//142 165//182
f 139//138 138//143 170//183
f 144//133 143//144 175//184
f 149//134 148//139 181//185
f 154//135 153//140 186//186
f 159//136 158//141 191//162
f 133//142 132//129 164//187
f 138//143 137//148 169//188
f 143//144 142//149 174//189
f 148//139 147//145 179//166
f 153//140 152//146 185//190
f 158//141 157//147 190//191
f 221//192 220//193 253//194
f 166//177 165//182 197//195
f 171//178 170//183 202//196
f 176//197 175//184 207//198
f 181//185 180//199 213//200
f 186//186 185//190 218//201
f 191//162 190//191 223//202
f 165//182 164//187 196//203
f 170//183 169//188 201//204
f 175//184 174//189 206//205
f 180//199 179//166 212//206
f 185//190 184//167 217//207
f 190//191 189//168 222//208
f 164//187 163//131 195//209
f 169//188 168//164 200//210
f 174//189 173//165 205//211
f 179//166 178//173 211//212
f 184//167 183//174 216//213
f 189//168 188//175 221//192
f 163//131 161//170 193//214
f 168//164 167//171 199//215
f 173//165 172//172 204//216
f 178//173 177//179 210//217
f 183//174 182//180 215//218
f 188//175 187//181 220//193
f 162//176 192//161 194//219
f 161//170 162//176 194//219
f 167//171 166//177 198//220
f 172//172 171//178 203//221
f 177//179 176//197 208//222
f 182//180 181//185 214//223
f 187//181 186//186 219//224
f 250//225 249//226 282//227
f 195//209 193//214 225//228
f 200//210 199//215 231//229
f 205//211 204//216 236//230
f 210//217 209//231 242//232
f 215//218 214//223 247//233
f 220//193 219//224 252//234
f 194//219 224//163 226//235
f 193//214 194//219 226//235
f 199//215 198//220 230//236
f 204//216 203//221 235//237
f 209//231 208//222 240//238
f 214//223 213//200 246//239
f 219//224 218//201 251//240
f 224//163 223//202 256//241
f 198//220 197//195 229//242
f 203//221 202//196 234//243
f 208//222 207//198 239//244
f 213//200 212//206 245//245
f 218//201 217//207 250//225
f 223//202 222//208 255//246
f 197//195 196//203 228//247
f 202//196 201//204 233//248
f 207//198 206//205 238//249
f 212//206 211//212 244//250
f 217//207 216//213 249//226
f 222//208 221//192 254//251
f 196//203 195//209 227//252
f 201//204 200//210 232//253
f 206//205 205//211 237//254
f 211//212 210//217 243//255
f 216//213 215//218 248//256
f 279//257 278//258 311//259
f 255//246 254//251 287//260
f 229//242 228//247 260//261
f 234//243 233//248 265//262
f 239//244 238//249 270//263
f 244//250 243//255 276//264
f 249//226 248//256 281//265
f 254//251 253//194 286//266
f 228//247 227//252 259//267
f 233//248 232//253 264//268
f 238//249 237//254 269//269
f 243//255 242//232 275//270
f 248//256 247//233 280//271
f 253//194 252//234 285//272
f 227//252 225//228 257//273
f 232//253 231//229 263//274
f 237//254 236//230 268//275
f 242//232 241//276 274//277
f 247//233 246//239 279//257
f 252//234 251//240 284//278
f 226//235 256//241 258//279
f 225//228 226//235 258//279
f 231//229 230//236 262//280
f 236//230 235//237 267//281
f 241//276 240//238 272//282
f 246//239 245//245 278//258
f 251//240 250//225 283//283
f 256//241 255//246 288//284
f 230//236 229//242 261//285
f 235//237 234//243 266//286
f 240//238 239//244 271//287
f 245//245 244//250 277//288
f 308//289 307//290 339//291
f 284//278 283//283 316//292
f 258//279 288//284 290//293
f 257//273 258//279 290//293
f 263//274 262//280 294//294
f 268//275 267//281 299//295
f 273//296 272//282 304//297
f 278//258 277//288 310//298
f 283//283 282//227 315//299
f 288//284 287//260 320//300
f 262//280 261//285 293//301
f 267//281 266//286 298//302
f 272//282 271//287 303//303
f 277//288 276//264 309//304
f 282//227 281//265 314//305
f 287//260 286//266 319//306
f 261//285 260//261 292//307
f 266//286 265//262 297//308
f 271//287 270//263 302//309
f 276//264 275//270 308//289
f 281//265 280//271 313//310
f 286//266 285//272 318//311
f 260//261 259//267 291//312
f 265//262 264//268 296//313
f 270//263 269//269 301//314
f 275//270 274//277 307//290
f 280//271 279//257 312//315
f 285//272 284//278 317//316
f 259//267 257//273 289//317
f 264//268 263//274 295//318
f 269//269 268//275 300//319
f 274//277 273//296 306//320
f 323//321 321//322 343//323
f 313//310 312//315 344//324
f 318//311 317//316 349//325
f 292//307 291//312 323//321
f 297//308 296//313 328//326
f 302//309 301//314 333//327
f 307//290 306//320 338//328
f 312//315 311//259 343//323
f 317//316 316//292 348//329
f 291//312 289//317 321//322
f 296//313 295//318 327//330
f 301//314 300//319 332//331
f 306//320 305//332 337//333
f 311//259 310//298 342//334
f 316//292 315//299 347//335
f 290//293 320//300 352//336
f 289//317 290//293 322//337
f 295//318 294//294 326//338
f 300//319 299//295 331//339
f 305//332 304//297 336//340
f 310//298 309//304 341//341
f 315//299 314//305 346//342
f 320//300 319//306 351//343
f 294//294 293//301 325//344
f 299//295 298//302 330//345
f 304//297 303//303 335//346
f 309//304 308//289 340//347
f 314//305 313//310 345//348
f 319//306 318//311 350//349
f 293//301 292//307 324//350
f 298//302 297//308 329//351
f 303//303 302//309 334//352
f 348//329 347//335 345//348
f 352//336 351//343 321//322
f 347//335 346//342 345//348
f 348//329 321//322 351//343
f 349//325 348//329 351//343
f 332//331 331//339 324//350
f 321//322 348//329 343//323
f 345//348 344//324 348//329
f 344//324 343//323 348//329
f 331//339 328//326 324//350
f 338//328 340//347 339//291
f 334//352 336//340 335//346
f 334//352 337//333 336//340
f 334//352 338//328 337//333
f 334//352 340//347 338//328
f 329//351 328//326 331//339
f 328//326 327//330 324//350
f 331//339 330//345 329//351
f 340//347 334//352 323//321
f 334//352 333//327 323//321
f 333//327 332//331 323//321
f 323//321 332//331 324//350
f 327//330 326//338 324//350
f 340//347 323//321 343//323
f 342//334 341//341 340//347
f 342//334 340//347 343//323
f 326//338 325//344 324//350
f 351//343 350//349 349//325
f 321//322 322//337 352//336
f 72//96 18//1 71//3
f 5//9 3//4 6//6
f 71//3 16//2 70//8
f 7//14 5//9 8//10
f 74//17 22//11 73//13
f 9//18 7//14 10//15
f 75//21 24//16 74//17
f 11//22 9//18 12//19
f 76//27 26//20 75//21
f 13//25 11//22 14//7
f 66//23 96//85 2//24
f 15//28 13//25 16//2
f 77//30 28//26 76//27
f 17//31 15//28 18//1
f 78//33 30//29 77//30
f 19//34 17//31 20//12
f 79//37 32//32 78//33
f 21//35 19//34 22//11
f 1//87 6//6 2//24
f 23//38 21//35 24//16
f 80//40 34//36 79//37
f 25//41 23//38 26//20
f 81//112 36//39 80//40
f 27//44 25//41 28//26
f 36//39 81//112 82//43
f 29//47 27//44 30//29
f 38//42 82//43 83//46
f 31//50 29//47 32//32
f 40//45 83//46 84//49
f 33//53 31//50 34//36
f 42//48 84//49 85//52
f 35//56 33//53 36//39
f 44//51 85//52 86//55
f 36//39 38//42 37//57
f 46//54 86//55 87//59
f 38//42 40//45 39//60
f 48//58 87//59 88//62
f 40//45 42//48 41//63
f 50//61 88//62 89//65
f 42//48 44//51 43//66
f 52//64 89//65 90//68
f 44//51 46//54 45//69
f 54//67 90//68 91//71
f 46//54 48//58 47//72
f 56//70 91//71 92//74
f 48//58 50//61 49//75
f 58//73 92//74 93//77
f 50//61 52//64 51//78
f 60//76 93//77 94//80
f 52//64 54//67 53//81
f 62//79 94//80 95//83
f 54//67 56//70 55//84
f 64//82 95//83 96//85
f 56//70 58//73 57//86
f 67//89 8//10 1//87
f 58//73 60//76 59//88
f 68//94 10//15 67//89
f 60//76 62//79 61//90
f 70//8 14//7 69//91
f 2//24 98//158 97//92
f 62//79 64//82 63//93
f 69//91 12//19 68//94
f 66//23 4//5 3//4
f 64//82 66//23 65//95
f 73//13 20//12 72//96
f 5//9 7//14 65//95
f 7//14 9//18 65//95
f 9//18 11//22 65//95
f 11//22 13//25 65//95
f 13//25 15//28 65//95
f 15//28 17//31 65//95
f 17//31 19//34 65//95
f 19//34 21//35 65//95
f 21//35 23//38 65//95
f 23//38 25//41 65//95
f 25//41 27//44 65//95
f 27//44 29//47 65//95
f 29//47 31//50 65//95
f 31//50 33//53 65//95
f 33//53 35//56 65//95
f 35//56 37//57 65//95
f 37//57 39//60 65//95
f 39//60 41//63 65//95
f 41//63 43//66 65//95
f 43//66 45//69 65//95
f 45//69 47//72 65//95
f 47//72 49//75 65//95
f 49//75 51//78 65//95
f 51//78 53//81 65//95
f 53//81 55//84 65//95
f 55//84 57//86 65//95
f 57//86 59//88 65//95
f 59//88 61//90 63//93
f 65//95 59//88 63//93
f 102//98 134//137 135//99
f 1//87 97//92 99//100
f 67//89 99//100 100//101
f 68//94 100//101 101//102
f 69//91 101//102 102//98
f 70//8 102//98 103//97
f 71//3 103//97 104//103
f 72//96 104//103 105//104
f 73//13 105//104 106//105
f 74//17 106//105 107//106
f 75//21 107//106 108//107
f 76//27 108//107 109//108
f 77//30 109//108 110//109
f 78//33 110//109 111//110
f 79//37 111//110 112//111
f 80//40 112//111 113//113
f 114//115 82//43 113//113
f 98//158 2//24 128//114
f 115//116 83//46 114//115
f 116//117 84//49 115//116
f 117//118 85//52 116//117
f 118//119 86//55 117//118
f 119//120 87//59 118//119
f 120//121 88//62 119//120
f 121//122 89//65 120//121
f 122//123 90//68 121//122
f 123//124 91//71 122//123
f 124//125 92//74 123//124
f 125//126 93//77 124//125
f 126//127 94//80 125//126
f 127//128 95//83 126//127
f 128//114 96//85 127//128
f 164//187 132//129 163//131
f 107//106 139//138 140//132
f 145//155 113//113 144//133
f 150//156 118//119 149//134
f 155//157 123//124 154//135
f 160//159 128//114 159//136
f 101//102 133//142 134//137
f 106//105 138//143 139//138
f 111//110 143//144 144//133
f 149//134 117//118 148//139
f 154//135 122//123 153//140
f 159//136 127//128 158//141
f 100//101 132//129 133//142
f 105//104 137//148 138//143
f 110//109 142//149 143//144
f 148//139 116//117 147//145
f 153//140 121//122 152//146
f 158//141 126//127 157//147
f 99//100 131//130 132//129
f 104//103 136//153 137//148
f 109//108 141//154 142//149
f 147//145 115//116 146//150
f 152//146 120//121 151//151
f 157//147 125//126 156//152
f 97//92 129//169 131//130
f 103//97 135//99 136//153
f 108//107 140//132 141//154
f 146//150 114//115 145//155
f 151//151 119//120 150//156
f 156//152 124//125 155//157
f 130//160 98//158 160//159
f 129//169 97//92 130//160
f 191//162 223//202 224//163
f 169//188 137//148 168//164
f 174//189 142//149 173//165
f 146//150 178//173 179//166
f 151//151 183//174 184//167
f 156//152 188//175 189//168
f 163//131 131//130 161//170
f 168//164 136//153 167//171
f 173//165 141//154 172//172
f 145//155 177//179 178//173
f 150//156 182//180 183//174
f 155//157 187//181 188//175
f 160//159 192//161 162//176
f 130//160 162//176 161//170
f 167//171 135//99 166//177
f 172//172 140//132 171//178
f 144//133 176//197 177//179
f 149//134 181//185 182//180
f 154//135 186//186 187//181
f 159//136 191//162 192//161
f 166//177 134//137 165//182
f 171//178 139//138 170//183
f 176//197 144//133 175//184
f 148//139 180//199 181//185
f 153//140 185//190 186//186
f 158//141 190//191 191//162
f 165//182 133//142 164//187
f 170//183 138//143 169//188
f 175//184 143//144 174//189
f 180//199 148//139 179//166
f 152//146 184//167 185//190
f 157//147 189//168 190//191
f 220//193 252//234 253//194
f 198//220 166//177 197//195
f 203//221 171//178 202//196
f 208//222 176//197 207//198
f 180//199 212//206 213//200
f 185//190 217//207 218//201
f 190//191 222//208 223//202
f 197//195 165//182 196//203
f 202//196 170//183 201//204
f 207//198 175//184 206//205
f 179//166 211//212 212//206
f 184//167 216//213 217//207
f 189//168 221//192 222//208
f 196//203 164//187 195//209
f 201//204 169//188 200//210
f 206//205 174//189 205//211
f 178//173 210//217 211//212
f 183//174 215//218 216//213
f 188//175 220//193 221//192
f 195//209 163//131 193//214
f 200//210 168//164 199//215
f 205//211 173//165 204//216
f 177//179 209//231 210//217
f 182//180 214//223 215//218
f 187//181 219//224 220//193
f 192//161 224//163 194//219
f 193//214 161//170 194//219
f 199//215 167//171 198//220
f 204//216 172//172 203//221
f 209//231 177//179 208//222
f 181//185 213//200 214//223
f 186//186 218//201 219//224
f 249//226 281//265 282//227
f 227//252 195//209 225//228
f 232//253 200//210 231//229
f 237//254 205//211 236//230
f 209//231 241//276 242//232
f 214//223 246//239 247//233
f 219//224 251//240 252//234
f 224//163 256//241 226//235
f 225//228 193//214 226//235
f 231//229 199//215 230//236
f 236//230 204//216 235//237
f 241//276 209//231 240//238
f 213//200 245//245 246//239
f 218//201 250//225 251//240
f 223//202 255//246 256//241
f 230//236 198//220 229//242
f 235//237 203//221 234//243
f 240//238 208//222 239//244
f 212//206 244//250 245//245
f 217//207 249//226 250//225
f 222//208 254//251 255//246
f 229//242 197//195 228//247
f 234//243 202//196 233//248
f 239//244 207//198 238//249
f 211//212 243//255 244//250
f 216//213 248//256 249//226
f 221//192 253//194 254//251
f 228//247 196//203 227//252
f 233//248 201//204 232//253
f 238//249 206//205 237//254
f 210//217 242//232 243//255
f 215//218 247//233 248//256
f 278//258 310//298 311//259
f 254//251 286//266 287//260
f 261//285 229//242 260//261
f 266//286 234//243 265//262
f 271//287 239//244 270//263
f 243//255 275//270 276//264
f 248//256 280//271 281//265
f 253//194 285//272 286//266
f 260//261 228//247 259//267
f 265//262 233//248 264//268
f 270//263 238//249 269//269
f 242//232 274//277 275//270
f 247//233 279//257 280//271
f 252//234 284//278 285//272
f 259//267 227//252 257//273
f 264//268 232//253 263//274
f 269//269 237//254 268//275
f 241//276 273//296 274//277
f 246//239 278//258 279//257
f 251//240 283//283 284//278
f 256//241 288//284 258//279
f 257//273 225//228 258//279
f 263//274 231//229 262//280
f 268//275 236//230 267//281
f 273//296 241//276 272//282
f 245//245 277//288 278//258
f 250//225 282//227 283//283
f 255//246 287//260 288//284
f 262//280 230//236 261//285
f 267//281 235//237 266//286
f 272//282 240//238 271//287
f 244//250 276//264 277//288
f 340//347 308//289 339//291
f 283//283 315//299 316//292
f 288//284 320//300 290//293
f 289//317 257//273 290//293
f 295//318 263//274 294//294
f 300//319 268//275 299//295
f 305//332 273//296 304//297
f 277//288 309//304 310//298
f 282//227 314//305 315//299
f 287//260 319//306 320//300
f 294//294 262//280 293//301
f 299//295 267//281 298//302
f 304//297 272//282 303//303
f 276//264 308//289 309//304
f 281//265 313//310 314//305
f 286//266 318//311 319//306
f 293//301 261//285 292//307
f 298//302 266//286 297//308
f 303//303 271//287 302//309
f 275//270 307//290 308//289
f 280//271 312//315 313//310
f 285//272 317//316 318//311
f 292//307 260//261 291//312
f 297//308 265//262 296//313
f 302//309 270//263 301//314
f 274//277 306//320 307//290
f 279//257 311//259 312//315
f 284//278 316//292 317//316
f 291//312 259//267 289//317
f 296//313 264//268 295//318
f 301//314 269//269 300//319
f 273//296 305//332 306//320
f 345//348 313//310 344//324
f 350//349 318//311 349//325
f 324//350 292//307 323//321
f 329//351 297//308 328//326
f 334//352 302//309 333//327
f 339//291 307//290 338//328
f 344//324 312//315 343//323
f 349//325 317//316 348//329
f 323//321 291//312 321//322
f 328//326 296//313 327//330
f 333//327 301//314 332//331
f 338//328 306//320 337//333
f 343//323 311//259 342//334
f 348//329 316//292 347//335
f 322//337 290//293 352//336
f 321//322 289//317 322//337
f 327//330 295//318 326//338
f 332//331 300//319 331//339
f 337//333 305//332 336//340
f 342//334 310//298 341//341
f 347//335 315//299 346//342
f 352//336 320//300 351//343
f 326//338 294//294 325//344
f 331//339 299//295 330//345
f 336//340 304//297 335//346
f 341//341 309//304 340//347
f 346//342 314//305 345//348
f 351//343 319//306 350//349
f 325//344 293//301 324//350
f 330//345 298//302 329//351
f 335//346 303//303 334//352
